hw/vhdl/test.vcd
$date
  Wed May 30 18:56:35 2018
$end
$version
  GHDL v0
$end
$timescale
  1 fs
$end
$var reg 5 ! op1[4:0] $end
$var reg 5 " op2[4:0] $end
$var reg 5 # ref[4:0] $end
$enddefinitions $end
#0
b00000 !
b00000 "
bUUUUU #
#1000000
b00001 "
#2000000
b00010 "
#3000000
b00011 "
#4000000
b00100 "
#5000000
b00101 "
#6000000
b00110 "
#7000000
b00111 "
#8000000
b01000 "
#9000000
b01001 "
#10000000
b01010 "
#11000000
b01011 "
#12000000
b01100 "
#13000000
b01101 "
#14000000
b01110 "
#15000000
b01111 "
#16000000
b10000 "
#17000000
b10001 "
#18000000
b10010 "
#19000000
b10011 "
#20000000
b10100 "
#21000000
b10101 "
#22000000
b10110 "
#23000000
b10111 "
#24000000
b11000 "
#25000000
b11001 "
#26000000
b11010 "
#27000000
b11011 "
#28000000
b11100 "
#29000000
b11101 "
#30000000
b11110 "
#31000000
b11111 "
#32000000
b00001 !
b00000 "
#33000000
b00001 "
#34000000
b00010 "
#35000000
b00011 "
#36000000
b00100 "
#37000000
b00101 "
#38000000
b00110 "
#39000000
b00111 "
#40000000
b01000 "
#41000000
b01001 "
#42000000
b01010 "
#43000000
b01011 "
#44000000
b01100 "
#45000000
b01101 "
#46000000
b01110 "
#47000000
b01111 "
#48000000
b10000 "
#49000000
b10001 "
#50000000
b10010 "
#51000000
b10011 "
#52000000
b10100 "
#53000000
b10101 "
#54000000
b10110 "
#55000000
b10111 "
#56000000
b11000 "
#57000000
b11001 "
#58000000
b11010 "
#59000000
b11011 "
#60000000
b11100 "
#61000000
b11101 "
#62000000
b11110 "
#63000000
b11111 "
#64000000
b00010 !
b00000 "
#65000000
b00001 "
#66000000
b00010 "
#67000000
b00011 "
#68000000
b00100 "
#69000000
b00101 "
#70000000
b00110 "
#71000000
b00111 "
#72000000
b01000 "
#73000000
b01001 "
#74000000
b01010 "
#75000000
b01011 "
#76000000
b01100 "
#77000000
b01101 "
#78000000
b01110 "
#79000000
b01111 "
#80000000
b10000 "
#81000000
b10001 "
#82000000
b10010 "
#83000000
b10011 "
#84000000
b10100 "
#85000000
b10101 "
#86000000
b10110 "
#87000000
b10111 "
#88000000
b11000 "
#89000000
b11001 "
#90000000
b11010 "
#91000000
b11011 "
#92000000
b11100 "
#93000000
b11101 "
#94000000
b11110 "
#95000000
b11111 "
#96000000
b00011 !
b00000 "
#97000000
b00001 "
#98000000
b00010 "
#99000000
b00011 "
#100000000
b00100 "
#101000000
b00101 "
#102000000
b00110 "
#103000000
b00111 "
#104000000
b01000 "
#105000000
b01001 "
#106000000
b01010 "
#107000000
b01011 "
#108000000
b01100 "
#109000000
b01101 "
#110000000
b01110 "
#111000000
b01111 "
#112000000
b10000 "
#113000000
b10001 "
#114000000
b10010 "
#115000000
b10011 "
#116000000
b10100 "
#117000000
b10101 "
#118000000
b10110 "
#119000000
b10111 "
#120000000
b11000 "
#121000000
b11001 "
#122000000
b11010 "
#123000000
b11011 "
#124000000
b11100 "
#125000000
b11101 "
#126000000
b11110 "
#127000000
b11111 "
#128000000
b00100 !
b00000 "
#129000000
b00001 "
#130000000
b00010 "
#131000000
b00011 "
#132000000
b00100 "
#133000000
b00101 "
#134000000
b00110 "
#135000000
b00111 "
#136000000
b01000 "
#137000000
b01001 "
#138000000
b01010 "
#139000000
b01011 "
#140000000
b01100 "
#141000000
b01101 "
#142000000
b01110 "
#143000000
b01111 "
#144000000
b10000 "
#145000000
b10001 "
#146000000
b10010 "
#147000000
b10011 "
#148000000
b10100 "
#149000000
b10101 "
#150000000
b10110 "
#151000000
b10111 "
#152000000
b11000 "
#153000000
b11001 "
#154000000
b11010 "
#155000000
b11011 "
#156000000
b11100 "
#157000000
b11101 "
#158000000
b11110 "
#159000000
b11111 "
#160000000
b00101 !
b00000 "
#161000000
b00001 "
#162000000
b00010 "
#163000000
b00011 "
#164000000
b00100 "
#165000000
b00101 "
#166000000
b00110 "
#167000000
b00111 "
#168000000
b01000 "
#169000000
b01001 "
#170000000
b01010 "
#171000000
b01011 "
#172000000
b01100 "
#173000000
b01101 "
#174000000
b01110 "
#175000000
b01111 "
#176000000
b10000 "
#177000000
b10001 "
#178000000
b10010 "
#179000000
b10011 "
#180000000
b10100 "
#181000000
b10101 "
#182000000
b10110 "
#183000000
b10111 "
#184000000
b11000 "
#185000000
b11001 "
#186000000
b11010 "
#187000000
b11011 "
#188000000
b11100 "
#189000000
b11101 "
#190000000
b11110 "
#191000000
b11111 "
#192000000
b00110 !
b00000 "
#193000000
b00001 "
#194000000
b00010 "
#195000000
b00011 "
#196000000
b00100 "
#197000000
b00101 "
#198000000
b00110 "
#199000000
b00111 "
#200000000
b01000 "
#201000000
b01001 "
#202000000
b01010 "
#203000000
b01011 "
#204000000
b01100 "
#205000000
b01101 "
#206000000
b01110 "
#207000000
b01111 "
#208000000
b10000 "
#209000000
b10001 "
#210000000
b10010 "
#211000000
b10011 "
#212000000
b10100 "
#213000000
b10101 "
#214000000
b10110 "
#215000000
b10111 "
#216000000
b11000 "
#217000000
b11001 "
#218000000
b11010 "
#219000000
b11011 "
#220000000
b11100 "
#221000000
b11101 "
#222000000
b11110 "
#223000000
b11111 "
#224000000
b00111 !
b00000 "
#225000000
b00001 "
#226000000
b00010 "
#227000000
b00011 "
#228000000
b00100 "
#229000000
b00101 "
#230000000
b00110 "
#231000000
b00111 "
#232000000
b01000 "
#233000000
b01001 "
#234000000
b01010 "
#235000000
b01011 "
#236000000
b01100 "
#237000000
b01101 "
#238000000
b01110 "
#239000000
b01111 "
#240000000
b10000 "
#241000000
b10001 "
#242000000
b10010 "
#243000000
b10011 "
#244000000
b10100 "
#245000000
b10101 "
#246000000
b10110 "
#247000000
b10111 "
#248000000
b11000 "
#249000000
b11001 "
#250000000
b11010 "
#251000000
b11011 "
#252000000
b11100 "
#253000000
b11101 "
#254000000
b11110 "
#255000000
b11111 "
#256000000
b01000 !
b00000 "
#257000000
b00001 "
#258000000
b00010 "
#259000000
b00011 "
#260000000
b00100 "
#261000000
b00101 "
#262000000
b00110 "
#263000000
b00111 "
#264000000
b01000 "
#265000000
b01001 "
#266000000
b01010 "
#267000000
b01011 "
#268000000
b01100 "
#269000000
b01101 "
#270000000
b01110 "
#271000000
b01111 "
#272000000
b10000 "
#273000000
b10001 "
#274000000
b10010 "
#275000000
b10011 "
#276000000
b10100 "
#277000000
b10101 "
#278000000
b10110 "
#279000000
b10111 "
#280000000
b11000 "
#281000000
b11001 "
#282000000
b11010 "
#283000000
b11011 "
#284000000
b11100 "
#285000000
b11101 "
#286000000
b11110 "
#287000000
b11111 "
#288000000
b01001 !
b00000 "
#289000000
b00001 "
#290000000
b00010 "
#291000000
b00011 "
#292000000
b00100 "
#293000000
b00101 "
#294000000
b00110 "
#295000000
b00111 "
#296000000
b01000 "
#297000000
b01001 "
#298000000
b01010 "
#299000000
b01011 "
#300000000
b01100 "
#301000000
b01101 "
#302000000
b01110 "
#303000000
b01111 "
#304000000
b10000 "
#305000000
b10001 "
#306000000
b10010 "
#307000000
b10011 "
#308000000
b10100 "
#309000000
b10101 "
#310000000
b10110 "
#311000000
b10111 "
#312000000
b11000 "
#313000000
b11001 "
#314000000
b11010 "
#315000000
b11011 "
#316000000
b11100 "
#317000000
b11101 "
#318000000
b11110 "
#319000000
b11111 "
#320000000
b01010 !
b00000 "
#321000000
b00001 "
#322000000
b00010 "
#323000000
b00011 "
#324000000
b00100 "
#325000000
b00101 "
#326000000
b00110 "
#327000000
b00111 "
#328000000
b01000 "
#329000000
b01001 "
#330000000
b01010 "
#331000000
b01011 "
#332000000
b01100 "
#333000000
b01101 "
#334000000
b01110 "
#335000000
b01111 "
#336000000
b10000 "
#337000000
b10001 "
#338000000
b10010 "
#339000000
b10011 "
#340000000
b10100 "
#341000000
b10101 "
#342000000
b10110 "
#343000000
b10111 "
#344000000
b11000 "
#345000000
b11001 "
#346000000
b11010 "
#347000000
b11011 "
#348000000
b11100 "
#349000000
b11101 "
#350000000
b11110 "
#351000000
b11111 "
#352000000
b01011 !
b00000 "
#353000000
b00001 "
#354000000
b00010 "
#355000000
b00011 "
#356000000
b00100 "
#357000000
b00101 "
#358000000
b00110 "
#359000000
b00111 "
#360000000
b01000 "
#361000000
b01001 "
#362000000
b01010 "
#363000000
b01011 "
#364000000
b01100 "
#365000000
b01101 "
#366000000
b01110 "
#367000000
b01111 "
#368000000
b10000 "
#369000000
b10001 "
#370000000
b10010 "
#371000000
b10011 "
#372000000
b10100 "
#373000000
b10101 "
#374000000
b10110 "
#375000000
b10111 "
#376000000
b11000 "
#377000000
b11001 "
#378000000
b11010 "
#379000000
b11011 "
#380000000
b11100 "
#381000000
b11101 "
#382000000
b11110 "
#383000000
b11111 "
#384000000
b01100 !
b00000 "
#385000000
b00001 "
#386000000
b00010 "
#387000000
b00011 "
#388000000
b00100 "
#389000000
b00101 "
#390000000
b00110 "
#391000000
b00111 "
#392000000
b01000 "
#393000000
b01001 "
#394000000
b01010 "
#395000000
b01011 "
#396000000
b01100 "
#397000000
b01101 "
#398000000
b01110 "
#399000000
b01111 "
#400000000
b10000 "
#401000000
b10001 "
#402000000
b10010 "
#403000000
b10011 "
#404000000
b10100 "
#405000000
b10101 "
#406000000
b10110 "
#407000000
b10111 "
#408000000
b11000 "
#409000000
b11001 "
#410000000
b11010 "
#411000000
b11011 "
#412000000
b11100 "
#413000000
b11101 "
#414000000
b11110 "
#415000000
b11111 "
#416000000
b01101 !
b00000 "
#417000000
b00001 "
#418000000
b00010 "
#419000000
b00011 "
#420000000
b00100 "
#421000000
b00101 "
#422000000
b00110 "
#423000000
b00111 "
#424000000
b01000 "
#425000000
b01001 "
#426000000
b01010 "
#427000000
b01011 "
#428000000
b01100 "
#429000000
b01101 "
#430000000
b01110 "
#431000000
b01111 "
#432000000
b10000 "
#433000000
b10001 "
#434000000
b10010 "
#435000000
b10011 "
#436000000
b10100 "
#437000000
b10101 "
#438000000
b10110 "
#439000000
b10111 "
#440000000
b11000 "
#441000000
b11001 "
#442000000
b11010 "
#443000000
b11011 "
#444000000
b11100 "
#445000000
b11101 "
#446000000
b11110 "
#447000000
b11111 "
#448000000
b01110 !
b00000 "
#449000000
b00001 "
#450000000
b00010 "
#451000000
b00011 "
#452000000
b00100 "
#453000000
b00101 "
#454000000
b00110 "
#455000000
b00111 "
#456000000
b01000 "
#457000000
b01001 "
#458000000
b01010 "
#459000000
b01011 "
#460000000
b01100 "
#461000000
b01101 "
#462000000
b01110 "
#463000000
b01111 "
#464000000
b10000 "
#465000000
b10001 "
#466000000
b10010 "
#467000000
b10011 "
#468000000
b10100 "
#469000000
b10101 "
#470000000
b10110 "
#471000000
b10111 "
#472000000
b11000 "
#473000000
b11001 "
#474000000
b11010 "
#475000000
b11011 "
#476000000
b11100 "
#477000000
b11101 "
#478000000
b11110 "
#479000000
b11111 "
#480000000
b01111 !
b00000 "
#481000000
b00001 "
#482000000
b00010 "
#483000000
b00011 "
#484000000
b00100 "
#485000000
b00101 "
#486000000
b00110 "
#487000000
b00111 "
#488000000
b01000 "
#489000000
b01001 "
#490000000
b01010 "
#491000000
b01011 "
#492000000
b01100 "
#493000000
b01101 "
#494000000
b01110 "
#495000000
b01111 "
#496000000
b10000 "
#497000000
b10001 "
#498000000
b10010 "
#499000000
b10011 "
#500000000
b10100 "
#501000000
b10101 "
#502000000
b10110 "
#503000000
b10111 "
#504000000
b11000 "
#505000000
b11001 "
#506000000
b11010 "
#507000000
b11011 "
#508000000
b11100 "
#509000000
b11101 "
#510000000
b11110 "
#511000000
b11111 "
#512000000
b10000 !
b00000 "
#513000000
b00001 "
#514000000
b00010 "
#515000000
b00011 "
#516000000
b00100 "
#517000000
b00101 "
#518000000
b00110 "
#519000000
b00111 "
#520000000
b01000 "
#521000000
b01001 "
#522000000
b01010 "
#523000000
b01011 "
#524000000
b01100 "
#525000000
b01101 "
#526000000
b01110 "
#527000000
b01111 "
#528000000
b10000 "
#529000000
b10001 "
#530000000
b10010 "
#531000000
b10011 "
#532000000
b10100 "
#533000000
b10101 "
#534000000
b10110 "
#535000000
b10111 "
#536000000
b11000 "
#537000000
b11001 "
#538000000
b11010 "
#539000000
b11011 "
#540000000
b11100 "
#541000000
b11101 "
#542000000
b11110 "
#543000000
b11111 "
#544000000
b10001 !
b00000 "
#545000000
b00001 "
#546000000
b00010 "
#547000000
b00011 "
#548000000
b00100 "
#549000000
b00101 "
#550000000
b00110 "
#551000000
b00111 "
#552000000
b01000 "
#553000000
b01001 "
#554000000
b01010 "
#555000000
b01011 "
#556000000
b01100 "
#557000000
b01101 "
#558000000
b01110 "
#559000000
b01111 "
#560000000
b10000 "
#561000000
b10001 "
#562000000
b10010 "
#563000000
b10011 "
#564000000
b10100 "
#565000000
b10101 "
#566000000
b10110 "
#567000000
b10111 "
#568000000
b11000 "
#569000000
b11001 "
#570000000
b11010 "
#571000000
b11011 "
#572000000
b11100 "
#573000000
b11101 "
#574000000
b11110 "
#575000000
b11111 "
#576000000
b10010 !
b00000 "
#577000000
b00001 "
#578000000
b00010 "
#579000000
b00011 "
#580000000
b00100 "
#581000000
b00101 "
#582000000
b00110 "
#583000000
b00111 "
#584000000
b01000 "
#585000000
b01001 "
#586000000
b01010 "
#587000000
b01011 "
#588000000
b01100 "
#589000000
b01101 "
#590000000
b01110 "
#591000000
b01111 "
#592000000
b10000 "
#593000000
b10001 "
#594000000
b10010 "
#595000000
b10011 "
#596000000
b10100 "
#597000000
b10101 "
#598000000
b10110 "
#599000000
b10111 "
#600000000
b11000 "
#601000000
b11001 "
#602000000
b11010 "
#603000000
b11011 "
#604000000
b11100 "
#605000000
b11101 "
#606000000
b11110 "
#607000000
b11111 "
#608000000
b10011 !
b00000 "
#609000000
b00001 "
#610000000
b00010 "
#611000000
b00011 "
#612000000
b00100 "
#613000000
b00101 "
#614000000
b00110 "
#615000000
b00111 "
#616000000
b01000 "
#617000000
b01001 "
#618000000
b01010 "
#619000000
b01011 "
#620000000
b01100 "
#621000000
b01101 "
#622000000
b01110 "
#623000000
b01111 "
#624000000
b10000 "
#625000000
b10001 "
#626000000
b10010 "
#627000000
b10011 "
#628000000
b10100 "
#629000000
b10101 "
#630000000
b10110 "
#631000000
b10111 "
#632000000
b11000 "
#633000000
b11001 "
#634000000
b11010 "
#635000000
b11011 "
#636000000
b11100 "
#637000000
b11101 "
#638000000
b11110 "
#639000000
b11111 "
#640000000
b10100 !
b00000 "
#641000000
b00001 "
#642000000
b00010 "
#643000000
b00011 "
#644000000
b00100 "
#645000000
b00101 "
#646000000
b00110 "
#647000000
b00111 "
#648000000
b01000 "
#649000000
b01001 "
#650000000
b01010 "
#651000000
b01011 "
#652000000
b01100 "
#653000000
b01101 "
#654000000
b01110 "
#655000000
b01111 "
#656000000
b10000 "
#657000000
b10001 "
#658000000
b10010 "
#659000000
b10011 "
#660000000
b10100 "
#661000000
b10101 "
#662000000
b10110 "
#663000000
b10111 "
#664000000
b11000 "
#665000000
b11001 "
#666000000
b11010 "
#667000000
b11011 "
#668000000
b11100 "
#669000000
b11101 "
#670000000
b11110 "
#671000000
b11111 "
#672000000
b10101 !
b00000 "
#673000000
b00001 "
#674000000
b00010 "
#675000000
b00011 "
#676000000
b00100 "
#677000000
b00101 "
#678000000
b00110 "
#679000000
b00111 "
#680000000
b01000 "
#681000000
b01001 "
#682000000
b01010 "
#683000000
b01011 "
#684000000
b01100 "
#685000000
b01101 "
#686000000
b01110 "
#687000000
b01111 "
#688000000
b10000 "
#689000000
b10001 "
#690000000
b10010 "
#691000000
b10011 "
#692000000
b10100 "
#693000000
b10101 "
#694000000
b10110 "
#695000000
b10111 "
#696000000
b11000 "
#697000000
b11001 "
#698000000
b11010 "
#699000000
b11011 "
#700000000
b11100 "
#701000000
b11101 "
#702000000
b11110 "
#703000000
b11111 "
#704000000
b10110 !
b00000 "
#705000000
b00001 "
#706000000
b00010 "
#707000000
b00011 "
#708000000
b00100 "
#709000000
b00101 "
#710000000
b00110 "
#711000000
b00111 "
#712000000
b01000 "
#713000000
b01001 "
#714000000
b01010 "
#715000000
b01011 "
#716000000
b01100 "
#717000000
b01101 "
#718000000
b01110 "
#719000000
b01111 "
#720000000
b10000 "
#721000000
b10001 "
#722000000
b10010 "
#723000000
b10011 "
#724000000
b10100 "
#725000000
b10101 "
#726000000
b10110 "
#727000000
b10111 "
#728000000
b11000 "
#729000000
b11001 "
#730000000
b11010 "
#731000000
b11011 "
#732000000
b11100 "
#733000000
b11101 "
#734000000
b11110 "
#735000000
b11111 "
#736000000
b10111 !
b00000 "
#737000000
b00001 "
#738000000
b00010 "
#739000000
b00011 "
#740000000
b00100 "
#741000000
b00101 "
#742000000
b00110 "
#743000000
b00111 "
#744000000
b01000 "
#745000000
b01001 "
#746000000
b01010 "
#747000000
b01011 "
#748000000
b01100 "
#749000000
b01101 "
#750000000
b01110 "
#751000000
b01111 "
#752000000
b10000 "
#753000000
b10001 "
#754000000
b10010 "
#755000000
b10011 "
#756000000
b10100 "
#757000000
b10101 "
#758000000
b10110 "
#759000000
b10111 "
#760000000
b11000 "
#761000000
b11001 "
#762000000
b11010 "
#763000000
b11011 "
#764000000
b11100 "
#765000000
b11101 "
#766000000
b11110 "
#767000000
b11111 "
#768000000
b11000 !
b00000 "
#769000000
b00001 "
#770000000
b00010 "
#771000000
b00011 "
#772000000
b00100 "
#773000000
b00101 "
#774000000
b00110 "
#775000000
b00111 "
#776000000
b01000 "
#777000000
b01001 "
#778000000
b01010 "
#779000000
b01011 "
#780000000
b01100 "
#781000000
b01101 "
#782000000
b01110 "
#783000000
b01111 "
#784000000
b10000 "
#785000000
b10001 "
#786000000
b10010 "
#787000000
b10011 "
#788000000
b10100 "
#789000000
b10101 "
#790000000
b10110 "
#791000000
b10111 "
#792000000
b11000 "
#793000000
b11001 "
#794000000
b11010 "
#795000000
b11011 "
#796000000
b11100 "
#797000000
b11101 "
#798000000
b11110 "
#799000000
b11111 "
#800000000
b11001 !
b00000 "
#801000000
b00001 "
#802000000
b00010 "
#803000000
b00011 "
#804000000
b00100 "
#805000000
b00101 "
#806000000
b00110 "
#807000000
b00111 "
#808000000
b01000 "
#809000000
b01001 "
#810000000
b01010 "
#811000000
b01011 "
#812000000
b01100 "
#813000000
b01101 "
#814000000
b01110 "
#815000000
b01111 "
#816000000
b10000 "
#817000000
b10001 "
#818000000
b10010 "
#819000000
b10011 "
#820000000
b10100 "
#821000000
b10101 "
#822000000
b10110 "
#823000000
b10111 "
#824000000
b11000 "
#825000000
b11001 "
#826000000
b11010 "
#827000000
b11011 "
#828000000
b11100 "
#829000000
b11101 "
#830000000
b11110 "
#831000000
b11111 "
#832000000
b11010 !
b00000 "
#833000000
b00001 "
#834000000
b00010 "
#835000000
b00011 "
#836000000
b00100 "
#837000000
b00101 "
#838000000
b00110 "
#839000000
b00111 "
#840000000
b01000 "
#841000000
b01001 "
#842000000
b01010 "
#843000000
b01011 "
#844000000
b01100 "
#845000000
b01101 "
#846000000
b01110 "
#847000000
b01111 "
#848000000
b10000 "
#849000000
b10001 "
#850000000
b10010 "
#851000000
b10011 "
#852000000
b10100 "
#853000000
b10101 "
#854000000
b10110 "
#855000000
b10111 "
#856000000
b11000 "
#857000000
b11001 "
#858000000
b11010 "
#859000000
b11011 "
#860000000
b11100 "
#861000000
b11101 "
#862000000
b11110 "
#863000000
b11111 "
#864000000
b11011 !
b00000 "
#865000000
b00001 "
#866000000
b00010 "
#867000000
b00011 "
#868000000
b00100 "
#869000000
b00101 "
#870000000
b00110 "
#871000000
b00111 "
#872000000
b01000 "
#873000000
b01001 "
#874000000
b01010 "
#875000000
b01011 "
#876000000
b01100 "
#877000000
b01101 "
#878000000
b01110 "
#879000000
b01111 "
#880000000
b10000 "
#881000000
b10001 "
#882000000
b10010 "
#883000000
b10011 "
#884000000
b10100 "
#885000000
b10101 "
#886000000
b10110 "
#887000000
b10111 "
#888000000
b11000 "
#889000000
b11001 "
#890000000
b11010 "
#891000000
b11011 "
#892000000
b11100 "
#893000000
b11101 "
#894000000
b11110 "
#895000000
b11111 "
#896000000
b11100 !
b00000 "
#897000000
b00001 "
#898000000
b00010 "
#899000000
b00011 "
#900000000
b00100 "
#901000000
b00101 "
#902000000
b00110 "
#903000000
b00111 "
#904000000
b01000 "
#905000000
b01001 "
#906000000
b01010 "
#907000000
b01011 "
#908000000
b01100 "
#909000000
b01101 "
#910000000
b01110 "
#911000000
b01111 "
#912000000
b10000 "
#913000000
b10001 "
#914000000
b10010 "
#915000000
b10011 "
#916000000
b10100 "
#917000000
b10101 "
#918000000
b10110 "
#919000000
b10111 "
#920000000
b11000 "
#921000000
b11001 "
#922000000
b11010 "
#923000000
b11011 "
#924000000
b11100 "
#925000000
b11101 "
#926000000
b11110 "
#927000000
b11111 "
#928000000
b11101 !
b00000 "
#929000000
b00001 "
#930000000
b00010 "
#931000000
b00011 "
#932000000
b00100 "
#933000000
b00101 "
#934000000
b00110 "
#935000000
b00111 "
#936000000
b01000 "
#937000000
b01001 "
#938000000
b01010 "
#939000000
b01011 "
#940000000
b01100 "
#941000000
b01101 "
#942000000
b01110 "
#943000000
b01111 "
#944000000
b10000 "
#945000000
b10001 "
#946000000
b10010 "
#947000000
b10011 "
#948000000
b10100 "
#949000000
b10101 "
#950000000
b10110 "
#951000000
b10111 "
#952000000
b11000 "
#953000000
b11001 "
#954000000
b11010 "
#955000000
b11011 "
#956000000
b11100 "
#957000000
b11101 "
#958000000
b11110 "
#959000000
b11111 "
#960000000
b11110 !
b00000 "
#961000000
b00001 "
#962000000
b00010 "
#963000000
b00011 "
#964000000
b00100 "
#965000000
b00101 "
#966000000
b00110 "
#967000000
b00111 "
#968000000
b01000 "
#969000000
b01001 "
#970000000
b01010 "
#971000000
b01011 "
#972000000
b01100 "
#973000000
b01101 "
#974000000
b01110 "
#975000000
b01111 "
#976000000
b10000 "
#977000000
b10001 "
#978000000
b10010 "
#979000000
b10011 "
#980000000
b10100 "
#981000000
b10101 "
#982000000
b10110 "
#983000000
b10111 "
#984000000
b11000 "
#985000000
b11001 "
#986000000
b11010 "
#987000000
b11011 "
#988000000
b11100 "
#989000000
b11101 "
#990000000
b11110 "
#991000000
b11111 "
#992000000
b11111 !
b00000 "
#993000000
b00001 "
#994000000
b00010 "
#995000000
b00011 "
#996000000
b00100 "
#997000000
b00101 "
#998000000
b00110 "
#999000000
b00111 "
#1000000000
b01000 "
#1001000000
b01001 "
#1002000000
b01010 "
#1003000000
b01011 "
#1004000000
b01100 "
#1005000000
b01101 "
#1006000000
b01110 "
#1007000000
b01111 "
#1008000000
b10000 "
#1009000000
b10001 "
#1010000000
b10010 "
#1011000000
b10011 "
#1012000000
b10100 "
#1013000000
b10101 "
#1014000000
b10110 "
#1015000000
b10111 "
#1016000000
b11000 "
#1017000000
b11001 "
#1018000000
b11010 "
#1019000000
b11011 "
#1020000000
b11100 "
#1021000000
b11101 "
#1022000000
b11110 "
#1023000000
b11111 "
